PCBNEW-LibModule-V1  2021-06-03 14:59:20
# encoding utf-8
Units mm
$INDEX
DIOAD2260W109L864D349
$EndINDEX
$MODULE DIOAD2260W109L864D349
Po 0 0 0 15 60b8ee48 00000000 ~~
Li DIOAD2260W109L864D349
Cd AXIAL LEAD CASE 017AA  ISSUE O
Kw Zener Diode
Sc 0
At STD
AR 
Op 0 0 0
T0 0 0 1.27 1.27 0 0.254 N V 21 N "Z**"
T1 0 0 1.27 1.27 0 0.254 N I 21 N "DIOAD2260W109L864D349"
DS -1.225 -2.095 23.825 -2.095 0.05 24
DS 23.825 -2.095 23.825 2.095 0.05 24
DS 23.825 2.095 -1.225 2.095 0.05 24
DS -1.225 2.095 -1.225 -2.095 0.05 24
DS 6.982 -1.745 15.617 -1.745 0.1 24
DS 15.617 -1.745 15.617 1.745 0.1 24
DS 15.617 1.745 6.982 1.745 0.1 24
DS 6.982 1.745 6.982 -1.745 0.1 24
DS 6.982 0 8.727 -1.745 0.1 24
DS 0 0 6.982 0 0.1 24
DS 15.618 0 22.6 0 0.1 24
DS 6.982 -1.745 15.618 -1.745 0.2 21
DS 15.618 -1.745 15.618 1.745 0.2 21
DS 15.618 1.745 6.982 1.745 0.2 21
DS 6.982 1.745 6.982 -1.745 0.2 21
DS 6.982 0 8.728 -1.745 0.2 21
DS 1.325 0 6.982 0 0.2 21
DS 15.618 0 21.275 0 0.2 21
$PAD
Po 0 0
Sh "1" R 1.95 1.95 0 0 900
Dr 1.3 0 0
At STD N 00E0FFFF
Ne 0 ""
$EndPAD
$PAD
Po 22.6 0
Sh "2" C 1.95 1.95 0 0 900
Dr 1.3 0 0
At STD N 00E0FFFF
Ne 0 ""
$EndPAD
$EndMODULE DIOAD2260W109L864D349
$EndLIBRARY
