PCBNEW-LibModule-V1  2021-06-03 13:48:01
# encoding utf-8
Units mm
$INDEX
DIOAD1380W86L436D236
$EndINDEX
$MODULE DIOAD1380W86L436D236
Po 0 0 0 15 60b8dd91 00000000 ~~
Li DIOAD1380W86L436D236
Cd DO-41
Kw Zener Diode
Sc 0
At STD
AR 
Op 0 0 0
T0 0 0 1.27 1.27 0 0.254 N V 21 N "Z**"
T1 0 0 1.27 1.27 0 0.254 N I 21 N "DIOAD1380W86L436D236"
DS -1.038 -1.53 14.837 -1.53 0.05 24
DS 14.837 -1.53 14.837 1.53 0.05 24
DS 14.837 1.53 -1.038 1.53 0.05 24
DS -1.038 1.53 -1.038 -1.53 0.05 24
DS 4.722 -1.18 9.077 -1.18 0.1 24
DS 9.077 -1.18 9.077 1.18 0.1 24
DS 9.077 1.18 4.722 1.18 0.1 24
DS 4.722 1.18 4.722 -1.18 0.1 24
DS 4.722 0 5.902 -1.18 0.1 24
DS 0 0 4.722 0 0.1 24
DS 9.078 0 13.8 0 0.1 24
DS 4.722 -1.18 9.078 -1.18 0.2 21
DS 9.078 -1.18 9.078 1.18 0.2 21
DS 9.078 1.18 4.722 1.18 0.2 21
DS 4.722 1.18 4.722 -1.18 0.2 21
DS 4.722 0 5.902 -1.18 0.2 21
DS 1.138 0 4.722 0 0.2 21
DS 9.078 0 12.662 0 0.2 21
$PAD
Po 0 0
Sh "1" R 1.575 1.575 0 0 900
Dr 1.05 0 0
At STD N 00E0FFFF
Ne 0 ""
$EndPAD
$PAD
Po 13.8 0
Sh "2" C 1.575 1.575 0 0 900
Dr 1.05 0 0
At STD N 00E0FFFF
Ne 0 ""
$EndPAD
$EndMODULE DIOAD1380W86L436D236
$EndLIBRARY
