EESchema Schematic File Version 4
EELAYER 30 0
EELAYER END
$Descr A4 11693 8268
encoding utf-8
Sheet 4 4
Title ""
Date ""
Rev ""
Comp ""
Comment1 ""
Comment2 ""
Comment3 ""
Comment4 ""
$EndDescr
$Comp
L Device:D_Zener D1
U 1 1 60BA4402
P 3500 2650
F 0 "D1" V 3454 2730 50  0000 L CNN
F 1 "5.1" V 3545 2730 50  0000 L CNN
F 2 "Diode_THT:D_A-405_P10.16mm_Horizontal" H 3500 2650 50  0001 C CNN
F 3 "~" H 3500 2650 50  0001 C CNN
	1    3500 2650
	0    1    1    0   
$EndComp
$Comp
L Device:R R11
U 1 1 60BA94BE
P 3500 3350
F 0 "R11" H 3570 3396 50  0000 L CNN
F 1 "470" H 3570 3305 50  0000 L CNN
F 2 "Resistor_THT:R_Axial_DIN0204_L3.6mm_D1.6mm_P1.90mm_Vertical" V 3430 3350 50  0001 C CNN
F 3 "~" H 3500 3350 50  0001 C CNN
	1    3500 3350
	1    0    0    -1  
$EndComp
$Comp
L Device:R R12
U 1 1 60BAC8CA
P 4000 3350
F 0 "R12" H 4070 3396 50  0000 L CNN
F 1 "390" H 4070 3305 50  0000 L CNN
F 2 "Resistor_THT:R_Axial_DIN0204_L3.6mm_D1.6mm_P1.90mm_Vertical" V 3930 3350 50  0001 C CNN
F 3 "~" H 4000 3350 50  0001 C CNN
	1    4000 3350
	1    0    0    -1  
$EndComp
$Comp
L Device:R R13
U 1 1 60BACA6F
P 4500 3350
F 0 "R13" H 4570 3396 50  0000 L CNN
F 1 "330" H 4570 3305 50  0000 L CNN
F 2 "Resistor_THT:R_Axial_DIN0204_L3.6mm_D1.6mm_P1.90mm_Vertical" V 4430 3350 50  0001 C CNN
F 3 "~" H 4500 3350 50  0001 C CNN
	1    4500 3350
	1    0    0    -1  
$EndComp
$Comp
L Device:R R14
U 1 1 60BACD7D
P 5000 3350
F 0 "R14" H 5070 3396 50  0000 L CNN
F 1 "220" H 5070 3305 50  0000 L CNN
F 2 "Resistor_THT:R_Axial_DIN0204_L3.6mm_D1.6mm_P1.90mm_Vertical" V 4930 3350 50  0001 C CNN
F 3 "~" H 5000 3350 50  0001 C CNN
	1    5000 3350
	1    0    0    -1  
$EndComp
$Comp
L Device:R R15
U 1 1 60BAD055
P 5500 3350
F 0 "R15" H 5570 3396 50  0000 L CNN
F 1 "47" H 5570 3305 50  0000 L CNN
F 2 "Resistor_THT:R_Axial_DIN0204_L3.6mm_D1.6mm_P1.90mm_Vertical" V 5430 3350 50  0001 C CNN
F 3 "~" H 5500 3350 50  0001 C CNN
	1    5500 3350
	1    0    0    -1  
$EndComp
$Comp
L Device:D_Zener D3
U 1 1 60BB0A24
P 4000 2650
F 0 "D3" V 3954 2730 50  0000 L CNN
F 1 "5.1" V 4045 2730 50  0000 L CNN
F 2 "Diode_THT:D_A-405_P10.16mm_Horizontal" H 4000 2650 50  0001 C CNN
F 3 "~" H 4000 2650 50  0001 C CNN
	1    4000 2650
	0    1    1    0   
$EndComp
$Comp
L Device:D_Zener D5
U 1 1 60BB0A76
P 4500 2650
F 0 "D5" V 4454 2730 50  0000 L CNN
F 1 "5.1" V 4545 2730 50  0000 L CNN
F 2 "Diode_THT:D_A-405_P10.16mm_Horizontal" H 4500 2650 50  0001 C CNN
F 3 "~" H 4500 2650 50  0001 C CNN
	1    4500 2650
	0    1    1    0   
$EndComp
$Comp
L Device:D_Zener D7
U 1 1 60BB0EB0
P 5000 2650
F 0 "D7" V 4954 2730 50  0000 L CNN
F 1 "5.1" V 5045 2730 50  0000 L CNN
F 2 "Diode_THT:D_A-405_P10.16mm_Horizontal" H 5000 2650 50  0001 C CNN
F 3 "~" H 5000 2650 50  0001 C CNN
	1    5000 2650
	0    1    1    0   
$EndComp
$Comp
L Device:D_Zener D9
U 1 1 60BB11C8
P 5500 2650
F 0 "D9" V 5454 2730 50  0000 L CNN
F 1 "5.1" V 5545 2730 50  0000 L CNN
F 2 "Diode_THT:D_A-405_P10.16mm_Horizontal" H 5500 2650 50  0001 C CNN
F 3 "~" H 5500 2650 50  0001 C CNN
	1    5500 2650
	0    1    1    0   
$EndComp
$Comp
L Device:LED D2
U 1 1 60BB18C3
P 3500 4000
F 0 "D2" V 3539 3882 50  0000 R CNN
F 1 "LED" V 3448 3882 50  0000 R CNN
F 2 "LED_THT:LED_D3.0mm" H 3500 4000 50  0001 C CNN
F 3 "~" H 3500 4000 50  0001 C CNN
	1    3500 4000
	0    -1   -1   0   
$EndComp
$Comp
L Device:LED D4
U 1 1 60BB3D99
P 4000 4000
F 0 "D4" V 4039 3882 50  0000 R CNN
F 1 "LED" V 3948 3882 50  0000 R CNN
F 2 "LED_THT:LED_D3.0mm" H 4000 4000 50  0001 C CNN
F 3 "~" H 4000 4000 50  0001 C CNN
	1    4000 4000
	0    -1   -1   0   
$EndComp
$Comp
L Device:LED D6
U 1 1 60BB3EF3
P 4500 4000
F 0 "D6" V 4539 3882 50  0000 R CNN
F 1 "LED" V 4448 3882 50  0000 R CNN
F 2 "LED_THT:LED_D3.0mm" H 4500 4000 50  0001 C CNN
F 3 "~" H 4500 4000 50  0001 C CNN
	1    4500 4000
	0    -1   -1   0   
$EndComp
$Comp
L Device:LED D8
U 1 1 60BB430A
P 5000 4000
F 0 "D8" V 5039 3882 50  0000 R CNN
F 1 "LED" V 4948 3882 50  0000 R CNN
F 2 "LED_THT:LED_D3.0mm" H 5000 4000 50  0001 C CNN
F 3 "~" H 5000 4000 50  0001 C CNN
	1    5000 4000
	0    -1   -1   0   
$EndComp
$Comp
L Device:LED D10
U 1 1 60BB4878
P 5500 4000
F 0 "D10" V 5539 3882 50  0000 R CNN
F 1 "LED" V 5448 3882 50  0000 R CNN
F 2 "LED_THT:LED_D3.0mm" H 5500 4000 50  0001 C CNN
F 3 "~" H 5500 4000 50  0001 C CNN
	1    5500 4000
	0    -1   -1   0   
$EndComp
Wire Wire Line
	3500 2500 3500 2200
Wire Wire Line
	3500 2200 4000 2200
Wire Wire Line
	5500 2200 5500 2500
Wire Wire Line
	5000 2500 5000 2200
Connection ~ 5000 2200
Wire Wire Line
	5000 2200 5500 2200
Wire Wire Line
	4500 2500 4500 2200
Connection ~ 4500 2200
Wire Wire Line
	4500 2200 5000 2200
Wire Wire Line
	4000 2200 4000 2500
Connection ~ 4000 2200
Wire Wire Line
	4000 2200 4500 2200
Wire Wire Line
	3500 2800 3500 3200
Wire Wire Line
	4500 2800 4500 3200
Wire Wire Line
	4000 2800 4000 3200
Wire Wire Line
	5000 2800 5000 3200
Wire Wire Line
	5500 2800 5500 3200
Wire Wire Line
	5500 3500 5500 3850
Wire Wire Line
	5000 3500 5000 3850
Wire Wire Line
	4500 3500 4500 3850
Wire Wire Line
	4000 3500 4000 3850
Wire Wire Line
	3500 3500 3500 3850
Wire Wire Line
	3500 4150 3500 4500
Wire Wire Line
	3500 4500 4000 4500
Wire Wire Line
	5500 4500 5500 4150
Wire Wire Line
	5000 4150 5000 4500
Connection ~ 5000 4500
Wire Wire Line
	5000 4500 5400 4500
Wire Wire Line
	4500 4150 4500 4500
Connection ~ 4500 4500
Wire Wire Line
	4500 4500 5000 4500
Wire Wire Line
	4000 4150 4000 4500
Connection ~ 4000 4500
Wire Wire Line
	4000 4500 4500 4500
$Comp
L power:GND #PWR0103
U 1 1 60BBBE47
P 5400 4500
F 0 "#PWR0103" H 5400 4250 50  0001 C CNN
F 1 "GND" H 5405 4327 50  0000 C CNN
F 2 "" H 5400 4500 50  0001 C CNN
F 3 "" H 5400 4500 50  0001 C CNN
	1    5400 4500
	1    0    0    -1  
$EndComp
Connection ~ 5400 4500
Wire Wire Line
	5400 4500 5500 4500
Text GLabel 3500 2200 0    50   Input ~ 0
V_+15
$EndSCHEMATC
