PCBNEW-LibModule-V1  2021-06-03 15:27:11
# encoding utf-8
Units mm
$INDEX
SOIC127P600X180-8N
$EndINDEX
$MODULE SOIC127P600X180-8N
Po 0 0 0 15 60b8e6bf 00000000 ~~
Li SOIC127P600X180-8N
Cd 8-Lead (SOP-8)-1
Kw Integrated Circuit
Sc 0
At SMD
AR 
Op 0 0 0
T0 0 0 1.27 1.27 0 0.254 N V 21 N "IC**"
T1 0 0 1.27 1.27 0 0.254 N I 21 N "SOIC127P600X180-8N"
DS -3.775 -2.81 3.775 -2.81 0.05 24
DS 3.775 -2.81 3.775 2.81 0.05 24
DS 3.775 2.81 -3.775 2.81 0.05 24
DS -3.775 2.81 -3.775 -2.81 0.05 24
DS -1.975 -2.46 1.975 -2.46 0.1 24
DS 1.975 -2.46 1.975 2.46 0.1 24
DS 1.975 2.46 -1.975 2.46 0.1 24
DS -1.975 2.46 -1.975 -2.46 0.1 24
DS -1.975 -1.19 -0.705 -2.46 0.1 24
DS -1.625 -2.46 1.625 -2.46 0.2 21
DS 1.625 -2.46 1.625 2.46 0.2 21
DS 1.625 2.46 -1.625 2.46 0.2 21
DS -1.625 2.46 -1.625 -2.46 0.2 21
DS -3.525 -2.58 -1.975 -2.58 0.2 21
$PAD
Po -2.75 -1.905
Sh "1" R 0.65 1.55 0 0 900
At SMD N 00888000
Ne 0 ""
$EndPAD
$PAD
Po -2.75 -0.635
Sh "2" R 0.65 1.55 0 0 900
At SMD N 00888000
Ne 0 ""
$EndPAD
$PAD
Po -2.75 0.635
Sh "3" R 0.65 1.55 0 0 900
At SMD N 00888000
Ne 0 ""
$EndPAD
$PAD
Po -2.75 1.905
Sh "4" R 0.65 1.55 0 0 900
At SMD N 00888000
Ne 0 ""
$EndPAD
$PAD
Po 2.75 1.905
Sh "5" R 0.65 1.55 0 0 900
At SMD N 00888000
Ne 0 ""
$EndPAD
$PAD
Po 2.75 0.635
Sh "6" R 0.65 1.55 0 0 900
At SMD N 00888000
Ne 0 ""
$EndPAD
$PAD
Po 2.75 -0.635
Sh "7" R 0.65 1.55 0 0 900
At SMD N 00888000
Ne 0 ""
$EndPAD
$PAD
Po 2.75 -1.905
Sh "8" R 0.65 1.55 0 0 900
At SMD N 00888000
Ne 0 ""
$EndPAD
$EndMODULE SOIC127P600X180-8N
$EndLIBRARY
